{
  "profiles": {
    "NetsuiteAPI": {
      "commandName": "Project",
      "launchBrowser": true,
      "environmentVariables": {
        "ASPNETCORE_ENVIRONMENT": "Development"
      },
      "applicationUrl": "https://localhost:56502;http://localhost:56513"
    }
  }
}